{
    "inputMessageMetadata": {
        "messagePayload": {
            "connectorName": "XTMule__Configuration",
            "typeId": "xware.xtapi.IMsg"
        }
    },
    "outputMessageMetadata": {},
    "id": "255deb6f-f344-44db-b06c-635762bf1bdd",
    "version": "5.2.0.0"
}