{
    "inputMessageMetadata": {
        "messagePayload": {
            "connectorName": "#_custom_mule_metadata_type_#",
            "typeId": "json1"
        }
    },
    "outputMessageMetadata": {},
    "id": "a0d0e754-e371-4c65-873c-b29ebfef3665",
    "version": "5.2.0.0"
}